…
    ## The following objects are masked from 'package:stats':
    ## 
    ##     filter, lag

    ## The following objects are masked from 'package:base':
    ## 
    ##     intersect, setdiff, setequal, union

``` r
virus %>% group_by(Country.Region) %>%
  summarize(sum(cases)) %>%
  arrange()
```

    ## # A tibble: 102 x 2
    ##    Country.Region `sum(cases)`
    ##    <fct>                 <int>
    ##  1 Afghanistan               1
    ##  2 Algeria                  17
    ##  3 Andorra                   1
    ##  4 Argentina                 8
    ##  5 Armenia                   1
    ##  6 Australia                86
    ##  7 Austria                  79
    ##  8 Azerbaijan                9
    ##  9 Bahrain                  89
    ## 10 Belarus                   6
    ## # … with 92 more rows
…
